{
	"days":[
	1,3,5,7
	],	
	"Hokkaido_Sapporo":[
		"ＨＢＣ北海道放送",
		"ＮＨＫＥテレ１・札幌",
		"ＮＨＫ総合１・札幌",
		"札幌テレビ",
		"ＨＴＢ",
		"ＴＶｈ",
		"北海道文化放送"
	],
	"Miyagi":[
		"ＴＢＣテレビ",
		"ＮＨＫＥテレ１・仙台",
		"ＮＨＫ総合１・仙台",
		"ミヤギテレビ",
		"東日本放送",
		"仙台放送"
	],
	"Akita":[
		"ＮＨＫ総合１・秋田",
		"ＮＨＫＥテレ１・秋田",
		"秋田放送",
		"秋田朝日放送",
		"ＡＫＴ秋田テレビ"
	],
	"Yamagata":[
		"ＮＨＫ総合１・山形",
		"ＮＨＫＥテレ１・山形",
		"山形放送",
		"山形テレビ",
		"ＴＵＹ",
		"さくらんぼテレビ"
	],
	"Iwate":[
		"ＮＨＫ総合１・盛岡",
		"ＮＨＫＥテレ１・盛岡",
		"テレビ岩手",
		"岩手朝日テレビ",
		"ＩＢＣテレビ",
		"めんこいテレビ"
	],
	"Hukushima":[
		"ＮＨＫ総合１・福島",
		"ＮＨＫＥテレ１・福島",
		"福島中央テレビ",
		"ＫＦＢ福島放送",
		"テレビユー福島",
		"ＦＴＶ福島テレビ"
	],
	"Aomori":[
		"ＲＡＢ青森放送",
		"ＮＨＫＥテレ１・青森",
		"ＮＨＫ総合１・青森",
		"青森朝日放送",
		"ＡＴＶ青森テレビ"
	],
	"Tokyo":[
		"ＮＨＫ総合１・東京",
		"ＮＨＫＥテレ１・東京",
		"日テレ",
		"テレビ朝日",
		"ＴＢＳ",
		"テレビ東京",
		"フジテレビ",
		"ＴＯＫＹＯ　ＭＸ１",
		"放送大学１"
	],
	"Kanagawa":[
		"ＮＨＫ総合１・東京",
		"ＮＨＫＥテレ１・東京",
		"ｔｖｋ",
		"日テレ",
		"テレビ朝日",
		"ＴＢＳ",
		"テレビ東京",
		"フジテレビ",
		"放送大学１"
	],
	"Gunma":[
		"ＮＨＫ総合１・前橋",
		"ＮＨＫＥテレ１・東京",
		"群馬テレビ",
		"日テレ",
		"ＴＢＳ",
		"フジテレビ",
		"テレビ朝日",
		"テレビ東京",
		"放送大学１",
		"ＮＨＫ総合１・東京"
	],
	"Ibaraki":[
		"ＮＨＫ総合１・水戸",
		"ＮＨＫＥテレ１・東京",
		"日テレ",
		"テレビ朝日",
		"ＴＢＳ",
		"テレビ東京",
		"フジテレビ",
		"放送大学１",
		"ＮＨＫ総合１・東京"
	],
	"Chiba":[
		"ＮＨＫ総合１・東京",
		"ＮＨＫＥテレ１・東京",
		"チバテレ",
		"日テレ",
		"テレビ朝日",
		"ＴＢＳ",
		"テレビ東京",
		"フジテレビ",
		"放送大学１"
	],
	"Tochigi":[
		"ＮＨＫ総合１・宇都宮",
		"ＮＨＫＥテレ１・東京",
		"とちぎテレビ",
		"日テレ",
		"ＴＢＳ",
		"フジテレビ",
		"テレビ朝日",
		"テレビ東京",
		"放送大学１",
		"ＮＨＫ総合１・東京"
	],
	"Saitama":[
		"ＮＨＫ総合１・東京",
		"ＮＨＫＥテレ１・東京",
		"テレ玉",
		"日テレ",
		"テレビ朝日",
		"ＴＢＳ",
		"テレビ東京",
		"フジテレビ",
		"放送大学１"
	],
	"Nagano":[
		"ＮＨＫ総合１・長野",
		"ＮＨＫＥテレ１・長野",
		"ＴＳＢ",
		"長野朝日放送",
		"ＳＢＣ信越放送",
		"長野放送"
	],
	"Niigata":[
		"ＮＨＫ総合１・新潟",
		"ＮＨＫＥテレ１・新潟",
		"ＴｅＮＹ",
		"新潟テレビ２１",
		"ＢＳＮ",
		"新潟総合テレビ"
	],
	"Yamanashi":[
		"ＮＨＫ総合１・甲府",
		"ＮＨＫＥテレ１・甲府",
		"山梨放送",
		"ＵＴＹ"
	],
	"Aichi":[
		"東海テレビ",
		"ＮＨＫＥテレ１・名古屋",
		"ＮＨＫ総合１・名古屋",
		"中京テレビ",
		"ＣＢＣテレビ",
		"メ～テレ",
		"テレビ愛知"
	],
	"Ishikawa":[
		"ＮＨＫ総合１・金沢",
		"ＮＨＫＥテレ１・金沢",
		"テレビ金沢",
		"ＨＡＢ",
		"ＭＲＯ",
		"石川テレビ"
	],
	"Shizuoka":[
		"ＮＨＫ総合１・静岡",
		"ＮＨＫＥテレ１・静岡",
		"Daiichi-TV",
		"静岡朝日テレビ",
		"ＳＢＳ",
		"テレビ静岡"
	],
	"Hukui":[
		"ＮＨＫ総合１・福井",
		"ＮＨＫＥテレ１・福井",
		"福井放送",
		"福井テレビ"
	],
	"Toyama":[
		"ＫＮＢテレビ",
		"ＮＨＫＥテレ１・富山",
		"ＮＨＫ総合１・富山",
		"チューリップテレビ",
		"富山テレビ放送"
	],
	"Mie":[
		"東海テレビ",
		"ＮＨＫＥテレ１・名古屋",
		"ＮＨＫ総合１・津",
		"中京テレビ",
		"ＣＢＣテレビ",
		"メ～テレ",
		"三重テレビ１"
	],
	"Gihu":[
		"東海テレビ",
		"ＮＨＫＥテレ１・名古屋",
		"ＮＨＫ総合１・岐阜",
		"中京テレビ",
		"ＣＢＣテレビ",
		"メ～テレ",
		"ぎふチャン"
	],
	"Oosaka":[
		"ＮＨＫ総合１・大阪",
		"ＮＨＫＥテレ１・大阪",
		"ＭＢＳ毎日放送",
		"ＡＢＣテレビ",
		"テレビ大阪",
		"関西テレビ",
		"よみうりテレビ"
	],
	"Kyoto":[
		"ＮＨＫ総合１・京都",
		"ＮＨＫＥテレ１・大阪",
		"ＭＢＳ毎日放送",
		"ＫＢＳ京都",
		"ＡＢＣテレビ",
		"関西テレビ",
		"よみうりテレビ"
	],
	"Hyougo":[
		"ＮＨＫ総合１・神戸",
		"ＮＨＫＥテレ１・大阪",
		"サンテレビ１",
		"ＭＢＳ毎日放送",
		"ＡＢＣテレビ",
		"関西テレビ",
		"よみうりテレビ"
	],
	"Wakayama":[
		"ＮＨＫ総合１・和歌山",
		"ＮＨＫＥテレ１・大阪",
		"ＭＢＳ毎日放送",
		"ＷＴＶ",
		"ＡＢＣテレビ",
		"関西テレビ",
		"よみうりテレビ"
	],
	"Nara":[
		"ＮＨＫ総合１・奈良",
		"ＮＨＫＥテレ１・大阪",
		"ＭＢＳ毎日放送",
		"ＡＢＣテレビ",
		"関西テレビ",
		"奈良テレビ",
		"よみうりテレビ"
	],
	"Shiga":[
		"ＮＨＫ総合１・大津",
		"ＮＨＫＥテレ１・大阪",
		"ＢＢＣびわ湖放送",
		"ＭＢＳ毎日放送",
		"ＡＢＣテレビ",
		"関西テレビ",
		"よみうりテレビ"
	],
	"Hiroshima":[
		"ＮＨＫ総合１・広島",
		"ＮＨＫＥテレ１・広島",
		"ＲＣＣテレビ",
		"広島テレビ",
		"広島ホームテレビ",
		"テレビ新広島"
	],
	"Okayama":[
		"ＮＨＫ総合１・岡山",
		"ＮＨＫＥテレ１・岡山",
		"ＲＮＣ西日本テレビ",
		"瀬戸内海放送",
		"ＲＳＫテレビ",
		"テレビせとうち",
		"ＯＨＫ"
	],
	"Shimane":[
		"日本海テレビ",
		"ＮＨＫＥテレ１・松江",
		"ＮＨＫ総合１・松江",
		"ＢＳＳテレビ",
		"山陰中央テレビ"
	],
	"Tottori":[
		"日本海テレビ",
		"ＮＨＫ総合１・鳥取",
		"ＮＨＫ総合１・鳥取",
		"ＢＳＳテレビ",
		"山陰中央テレビ"
	],
	"Yamaguchi":[
		"ＮＨＫ総合１・山口",
		"ＮＨＫＥテレ１・山口",
		"ｔｙｓテレビ山口",
		"ＫＲＹ",
		"ｙａｂ山口朝日"
	],
	"Ehime":[
		"ＮＨＫ総合１・松山",
		"ＮＨＫＥテレ１・松山",
		"南海放送",
		"愛媛朝日テレビ",
		"あいテレビ",
		"テレビ愛媛"
	],
	"Kagawa":[
		"ＮＨＫ総合１・高松",
		"ＮＨＫＥテレ１・高松",
		"ＲＮＣ西日本テレビ",
		"瀬戸内海放送",
		"ＲＳＫテレビ",
		"テレビせとうち",
		"ＯＨＫ"
	],
	"Tokushima":[
		"四国放送",
		"ＮＨＫ総合１・徳島",
		"ＮＨＫＥテレ１・徳島"
	],
	"Kouchi":[
		"ＮＨＫ総合１・高知",
		"ＮＨＫＥテレ１・高知",
		"高知放送",
		"テレビ高知",
		"高知さんさんテレビ"
	],
	"Fukuoka":[
		"ＫＢＣテレビ",
		"ＮＨＫＥテレ１・福岡",
		"ＮＨＫ総合１・福岡",
		"ＲＫＢ毎日放送",
		"ＦＢＳ福岡放送",
		"ＴＶＱ九州放送",
		"テレビ西日本",
		"ＮＨＫＥテレ１・北九州",
		"ＮＨＫ総合１・北九州"
	],
	"Kumamoto":[
		"ＮＨＫ総合１・熊本",
		"ＮＨＫＥテレ１・熊本",
		"ＲＫＫ熊本放送",
		"くまもと県民",
		"ＫＡＢ熊本朝日放送",
		"テレビ熊本"
	],
	"Nagasaki":[
		"ＮＨＫ総合１・長崎",
		"ＮＨＫＥテレ１・長崎",
		"ＮＢＣ長崎放送",
		"長崎国際テレビ",
		"ＮＣＣ長崎文化放送",
		"テレビ長崎"
	],
	"Kagoshima":[
		"ＭＢＣ南日本放送",
		"ＮＨＫＥテレ１・鹿児島",
		"ＮＨＫ総合１・鹿児島",
		"鹿児島讀賣テレビ",
		"ＫＫＢ鹿児島放送",
		"鹿児島テレビ放送"
	],
	"Miyazaki":[
		"ＮＨＫ総合１・宮崎",
		"ＮＨＫＥテレ１・宮崎",
		"テレビ宮崎",
		"ＭＲＴ宮崎放送"
	],
	"Ooita":[
		"ＮＨＫ総合１・大分",
		"ＮＨＫＥテレ１・大分",
		"ＯＢＳ大分放送",
		"ＴＯＳテレビ大分",
		"ＯＡＢ大分朝日放送"
	],
	"Saga":[
		"ＮＨＫ総合１・佐賀",
		"ＮＨＫＥテレ１・佐賀",
		"ＳＴＳサガテレビ"
	],
	"Okinawa":[
		"ＮＨＫ総合１・沖縄",
		"ＮＨＫＥテレ１・沖縄",
		"ＲＢＣテレビ",
		"琉球朝日放送",
		"沖縄テレビ"
	],
	"bs1":[
		"ＮＨＫ ＢＳ１",
		"ＮＨＫ ＢＳプレミアム",
		"ＢＳ日テレ",
		"ＢＳ朝日",
		"ＢＳ-ＴＢＳ",
		"ＢＳジャパン",
		"ＢＳフジ"
	],
	"bs2":[
		"ＷＯＷＯＷプライム",
		"ＷＯＷＯＷライブ",
		"ＷＯＷＯＷシネマ",
		"スター・チャンネル1",
		"スター・チャンネル2",
		"スター・チャンネル3",
		"BS11イレブン",
		"BS12 トゥエルビ",
		"放送大学BS1"
	],
	"bs3":[
		"グリーンチャンネル",
		"BSアニマックス",
		"FOXスポーツエンタ",
		"BSスカパー!",
		"J SPORTS 1",
		"J SPORTS 2",
		"J SPORTS 3",
		"J SPORTS 4"
	],
	"bs4":[
		"BS釣りビジョン",
		"シネフィルWOWOW",
		"BS日本映画専門チャンネル",
		"ディズニー・チャンネル",
		"ディーライフ"
	]
}
